Chapter 2 Data and Statistics
…
#sp.key <- read.csv("Clean Data/species_key.csv")
long$Microsite <- gsub(" ","", long$Microsite)
long$uniID <- paste(long$Date, long$PlantID, long$Microsite)
#long <- inner_join(long, sp.key, by = "highest.rtu")
#for pinned specimens need to collapse & add up the Quantity
long.fil <- dplyr::select(long, uniID, highest.rtu, Quantity)
long.ag <- long.fil %>% group_by(uniID, highest.rtu) %>% summarise(Quantity = sum(Quantity)) 
sum(long.ag$Quantity)

## [1] 3400

counts <- long.ag %>% group_by(highest.rtu) %>% summarise(Quantity = sum(Quantity))
count(long.ag, highest.rtu)

## # A tibble: 1,636 x 3
## # Groups:   uniID [228]
##    uniID               highest.rtu          n
##    <chr>               <chr>            <int>
##  1 4.10.2017 184 open  Cicadellidae         1
##  2 4.10.2017 184 open  Eupeodesvolucris     1
##  3 4.10.2017 184 open  Melyridae            1
##  4 4.10.2017 184 open  Mythicomyiidae       1
##  5 4.10.2017 184 open  Sciaridae            1
##  6 4.10.2017 184 open  Usiinae              1
##  7 4.10.2017 184 shrub Anthidium            1
##  8 4.10.2017 184 shrub Chrysomelidae        1
##  9 4.10.2017 184 shrub Cicadellidae         1
## 10 4.10.2017 184 shrub Lasioglossum         1
## # ... with 1,626 more rows
…
